[
  {
    "Vertrekstation": "Amersfoort Centraal",
    "Aankomststation": "Veenendaal Centraal",
    "Plaatsnaam": "Amersfoort",
    "Perron": "B",
    "Traject": "1",
    "Reistijd": "1:02",
    "Reisafstand": "55",
    "Trein nummer" : "4",
    "Tussen stop" : "Utrecht Centraal",
    "Type trein" : "Stop trein",
    "Eind punt" : "Rhenen",
    "Vertrektijd": "06:10","Aankomsttijd": "07:12",
    "Vertrektijd1": "07:40", "Aankomsttijd1": "08:42",
    "Vertrektijd2": "09:40", "Aankomsttijd2": "10:42",
    "Vertrektijd3": "12:10", "Aankomsttijd3": "13:12",
    "Vertrektijd4": "16:10", "Aankomsttijd4": "17:12",
    "Vertrektijd5": "21:40", "Aankomsttijd5": "22:42"

  },

  {
    "Vertrekstation": "Utrecht Centraal",
    "Aankomststation": "Amersfoort Centraal",
    "Plaatsnaam": "Utrecht",
    "Perron": "B",
    "Traject": "2",
    "Reistijd": "0:13",
    "Reisafstand": "23",
    "Trein nummer" : "4",
    "Tussen stop" : "geen",
    "Type trein" : "Intercity",
    "Eind punt" : "Amersfoort",
    "Vertrektijd": "06:59", "Aankomsttijd": "07:12",
      "Vertrektijd1": "09:59", "Aankomsttijd1": "10:12",
      "Vertrektijd2": "11:28", "Aankomsttijd2": "11:41",
      "Vertrektijd3": "13:10", "Aankomsttijd3": "13:23",
      "Vertrektijd4": "15:59", "Aankomsttijd4": "16:12",
      "Vertrektijd5": "19:40", "Aankomsttijd5": "19:52"

  },

  {
    "Vertrekstation": "Amsterdam Centraal",
    "Aankomststation": "Amersfoort Centraal",
    "Plaatsnaam": "Amsterdam",
    "Perron": "D",
    "Traject": "3",
    "Reistijd": "0:56",
    "Reisafstand": "73",
    "Trein nummer" : "4",
    "Tussen stop" : "Hilversum Centraal",
    "Type trein" : "Stop trein",
    "Eind punt" : "Amersfoort",
    "Vertrektijd":"07:24", "Aankomsttijd":"08:20",
      "Vertrektijd1":"09:54", "Aankomsttijd1":"10:50",
      "Vertrektijd2":"12:24", "Aankomsttijd2":"13:20",
      "Vertrektijd3":"14:54", "Aankomsttijd3":"15:50",
      "Vertrektijd4":"17:24", "Aankomsttijd4":"18:20",
      "Vertrektijd5":"19:54", "Aankomsttijd5":"20:50"

  }
]





